{"hash":"906c256f480fb914e5cf7154e499e43646e43135","data":{"category":{"id":"programing","belongsTo":{"totalCount":15,"pageInfo":{"totalPages":3,"currentPage":3},"edges":[{"node":{"title":"[Shell]Shellでpostgresの複雑なトランザクション制御方法","timeToRead":1,"date":"August 2, 2017","path":"/article/shell-postgres-transaction-control/","summary":"","thumbnail":{"type":"image","mimeType":"image/png","src":"/assets/static/thumbnail.3df3210.a149ee549bbb3d2a61b941b9f35acd7b.png","size":{"width":1024,"height":576},"sizes":"(max-width: 1024px) 100vw, 1024px","srcset":["/assets/static/thumbnail.1b91758.a149ee549bbb3d2a61b941b9f35acd7b.png 480w","/assets/static/thumbnail.3df3210.a149ee549bbb3d2a61b941b9f35acd7b.png 1024w"],"dataUri":"data:image/svg+xml,%3csvg fill='none' viewBox='0 0 1024 576' xmlns='http://www.w3.org/2000/svg' xmlns:xlink='http://www.w3.org/1999/xlink'%3e%3cdefs%3e%3cfilter id='__svg-blur-4d5a1b603b35d093d0836e4113ac145c'%3e%3cfeGaussianBlur in='SourceGraphic' stdDeviation='40'/%3e%3c/filter%3e%3c/defs%3e%3cimage x='0' y='0' filter='url(%23__svg-blur-4d5a1b603b35d093d0836e4113ac145c)' width='1024' height='576' xlink:href='data:image/png%3bbase64%2ciVBORw0KGgoAAAANSUhEUgAAAEAAAAAkCAYAAAA5DDySAAAACXBIWXMAAAsSAAALEgHS3X78AAATvElEQVRo3qWa91tU177G%2bVfuc8s5yTnGgr1EbEhXU4gFBcUuiBSxm8RYsKDm5ORYURCmUYcOw9A7DDCg1Jmhl6GZe/%2bC975r7T0UY05O7v3h86yZPbutz/6u7yp73Ap2PEaNzwtUej1H5U7BC1R4vkD5DsFLlG0n2xJQulXBvOUVzB6vUCLY/Bqmz8mm1yjelIjijYko2pCEovVJKBSse4OCtQr5a5KRt5qsSkGuYGUKctw1kuwVZLkWxmUKWUt1yPpMh8wleknGX8lfDEgXfGpA2iepSP2zIA0GwX%2bkQ%2beeiqTgZCQeUjmYjNeSFLwOUnglOOBCi6f7XsOt1vsZ3gZoYPVLIRq0%2bRJvDVoFXlq07NTC4qmDZYcOzYLtejRtI1sNaNxiQMOWVDR4pKJ%2bM/k8DXWbBOmo3ZiOmg1kfQaq1wkyUbWWrMlE5eosVAhWGVG%2bkrgbUbYiG6WC5TkwLyNLc1DyWa7EtCQPxX8lf8lD0af5ksJPClD45wIU/In8VyHyiOHLNGhD9NAeNMyhCRKkSlIOqOzn9/3peLVPA7d6Wug8mIaOfXpiIKnoOJCOjqB0tHMn674MSdveTLR9k4lWQWAWWr4mX2XB8pURli%2bNaBZ8kY2mPWR3Dhp3KTQE5Erq/fNQ50d8FWp98lHrnY8a7wLUeBWgemcBqjwLJZU7BEWo3F6Eim3FqNhajPItxSgTeJhICUoFm0tg3lSCkk1mmNeVIvfLPOjDUmE4mbYI/cl06E8o6I4r6I9nIumojgICE9B3Ohu9UfmSrpPZUoL1Kz3aA1l%2bnYq2rwjttgq%2bSEfLHgXL7gxYdmWgOUCQiSZ/4peFRl%2bFBh8j6r0V6ryyUbczG7WeOZKaHWR7LqoF23JRtTUPVVvyUOmRjwrBZvJ5AcpJ2SaysRClgvWFKFldANNKsroIJWuLYVpDVplQwN8Nx1JZOXLMRZosdUfT5tCGsgxNR%2bJhLdw6YrMwdKscA7cJy/4fymC7ZJISWrzeoMUnBS3eKbB4paB5pwbNnho0CXZo0bidbNOhgdRvJVv0qPMgmw2oFXxuQM2mVFRvJBvSUCVYn4bKdemoXJuOirUZKF9DVmegbFUmylZmonRlFkrds2BekYWS5UaJaVk2TEuzUbyEsGlUeppRHVAO84ZiFPw5FwWf5iH/E/KnfKTuSYPmiBbaQzqih8bFQYUUNokUtVm82p8Mt%2b6bhRi6XYaBm6WEJQUM3K5A/81yvD3AJ%2b6TjFZ/DVqYG1p8NLD4MCd4a9HspUPTToVGTz0ad%2bjRsF1gQP02sjUVdcwPtR6CNNRsJp%2bno3qTQtXGDArJQOX6TEnFeuaEdVkoX5uFstVGSSlzhHllNszu2Shxz5EiGvZVwhptgTXKgtaIZpRvLaGAXBR%2bli9zgtHDCC1DW8dcINC6CDZINIco4JAoU2VidOu%2bka8IuEUBt8qkhH5Vgv2KCW27UtDqpzAvQaNKIEKCp5Cgm5ewzSXBMC9hs0tCmiJh47yECibJ8lXpTIhkdSajQkggqxQJpZQgIqF8Uz7aIhrRGk7ONKLtXDMaDtagaAkFMFEW/iUf%2bcuYB/jEdUd0HwiYR0SE1iWg52Y%2bhu%2bUYfC2mZRi0CVCSGCTeBecjlbfN2jz/x0JO/%2b5hLpFkZA2FwmV6/h9mxENXxSSIuaDHMrImJfgioQVFLAxjwIaFAlhDYwCCgiqlgKKPqOAz5ReImMXE90xLfQiCg7/WoImWBUQ/EYRMBJHAXdUAbdLlWhgkxiMq0D3SSPafJJkJLgktPoqTWKRBFeTWChh%2bwcStigSlGhIl3mh6asCvDtfi86L9XgnOF%2bHpkCTEgmiOaxZLKE%2bsAzt0U2sfJOUUO5RRAE5zA2UQIopIGeTkcmOAg7rpADJgiYhIyDUgESvFJeAUgzdUZiLAiHgbgV6TlGAXxKsuykgQJXAnNDq58oLSk6weOsWSNCrecEgJSjRQAFqXqjbkiaTY4NfNrou1bHydVLCu5haKUDIqPcvkJFQsY5Pfs18TijluKHKswi1AWb2DAUyOZqWc6ywjJUXiEhgM0hlotOH6ihBL1koQsMckR5ASf%2beAbfeW3kYucvK3zVhOK4EQ4I7JRRRIqOiM1jHAdIrWHclwuqfSAGJrHwSoyCJlWcv4f2GlX/DyiezKSSz8insIVJYeQ17CQ0rr2EEaNlDaFlxHZuCjlGg59PXoi2kCN1Xa9AZW4XOC9V4F1uDt%2bdrGAm1aAktpYA0RkI6c0E6K5/BymcwIWaiZGkGB0dkaSYrnsWnb2TFjYwEI3NBNoo%2byUGmNwc7x5KhPZwCjUQDTYgGKUdSoPdPRd5/FkL7b6kUcDuXEVABx6Vu9F/qlTguElFe6EHPCSt6jrVJugVHXVjRHWpF10KOKHQeaUfn4cW8CxF0zPE2uAM94T3oi7GjN9pG7ApRStkd3oeOg285IHuL9qB3H6ET1gNk/zvSKWnbR0S5twstwe/QGNaucGYxFu5nDexFxZ5GuNnu5mE0rhK2c5OwRcywnF7AFOzRM7BHzSqIz/8KMTNwxMzCcX5WluK7PWZa2R6tws%2b2SJ7/3G8QOc3jZ9BPROmI%2bTX9Mcrvkli1jJkvByJn54lyIX6bxmDse1jPOuDWdSUVY3cpIGqcN%2bSE/awT/Wen0R8%2bjYFzvNBZcTPcTkH2iEk4wqfmEPuIfef3cfLzpNxmOzOB3pPjEkf4JAbCea6IKeU83E%2bca4DCHZE8J0W4SjtLF31hExylKtginOg7y5LH2iJY8nPfWd5zOLeHq/uc4W/nJpTfeT99slQ/i33C5s8jrtVyshduzV//CMeJDO40hn7eUMvlbpguVMF8rRoVMY2wXOriRSbRe24c7QzXymtNKL5QibrrbSi%2bUomaCy1oie1WbpYXs8R2oYxJbOCJE%2bN5M5gseQ/LjU4Uf1eBjlgHus%2bOykp0RQ6j/mK7LDsjhtEVMUKGeZ0xeZ7u8FGORSbhLJvF8Es%2bsRdOTDbNYNQ8iUHDBMaKpzBtfY8Bbh83ch8DBX7nxNDPUxiIp7xQJwYe87dSPsgf%2bVDixHdG%2bXnKv8iHzAhvPd0HNwsF2A5q0McL9/MptT7oQsF1M7IfFcBwJwO5P3Psfb8ShpsZKHxkRsWbGhRzlFj40IzUuEzk/1SMrPg8mB9WQn8jA/mPi2H8KRf9dyYxWf0eo9ppNL%2bxIjleg7xHxShk75L2gxGGbzOR85gzuh9KkXkrF3n3TMi%2bXSCvk34jG4ZrWZgwU2D5e0wUzcJZPYvZqVmM90xgxOTE7OQs/nv2fzCon8CEaQZj5az4j06MJsxgxvoLBu6z0vEUUDiNyVo2xStODD6lUDM/f09ZZ10CvnkMe4hWFTALy/23yL9UiiIOhvLZG1R91wjz/SrorqXDeJWztQcNKP6%2bAgU3zcj9oQjlD2tRdqUe5kdVSL6gR%2b71YnlsX9QERg3TGPlxFvU32tAU806Jmvvl0F/MROaNXJTdqUHSdQ0Mf%2bfY4J4F9d9bkXRJA100JXyfjVENK1bAc2imMKKdwkT3JGY6f8FwlhPOZlbU8R5DOidG9FP4xUEZPzE6GAGDzydlhfvYDEdS%2bf0hm9gNyiiYwVD8NLczAqIp4BQFtHzzCI4QNQLYBFov9aAmppU5gW2YbayPoS/aTw%2bbSB/bV0/YGKovWtB%2b3s59nOgNH5fNQ5R90eOy3YnjRFuzsZ33X5mSv4n2L0K/O3KECXVSOR/3LY2tQ8nVavmbuOHeyHFlPzaBvlM8R7SSf0Q7tl0ah50hbLvglNeys5L2KKdyrYtK%2b7ZHO5U8EcY8EiNE8Ngwbj8/qV7DKc/VH6UKaN1LAewjbRFj/IE3HCGS36ySrBYkJCU7K58HIhhGbEOL9mFlRUKSiTRWvQmWohKOGB4b45S5xM6EaTvDMkxJeINnmZnPvJfnclxTblq0UcdlpRTfZeUviMSnVkRIUM9nU%2b/BdlYtZZKdlElZ9mzimKhJRY7YHqWImBNg2RtPASncOKacINL5zxEVUzPrHDQ8ECfa/CymWmYxmMbQe8W2Vz%2bLoZ8o9JnS/uyXWbFvmah%2bYg/CBOe4ye0vxZOdwGDKBMZbpjBaNokx0xTGGhiy7fxsnsJQMkO/4xcMaXid1xNy22Tle/nUXZX9EJsaNa46KQ9Kvf%2bFAl7vCMfbgy/RLyul2Fn05H8Xp7TvuOrEcBqTTNWslDH4j0nZAww/UbLwWO60zNa278cxVjmJidIZ%2bXQHn/EYsZ%2bWleynQNsMJqopr5uMUETlFIafT2Pa8gtGs9jtPh2Hs3UGU%2b2M0m8n1Cf/x%2b55kYDwpd4o%2bzoeQ1FTbONKX/5HTybD6jRPeo8Sknie43xSf5vEaMo0ek/w6f5MAVkzMnztV5kcjUxqumklMRk5YPl%2bSnZhIyXM4vmTUsZY6ZTS5ekmMPxaSWzDr5jp/%2b6UXeBoPo%2b57lRC/P8jIORTD86KLlCAUyY5MZCwL8D2B5AJiYMMeUNMRmJsICNEnPu02oajFjepvlNMemHK8XJgw0iUxzJBiqQojpHnjHElOPU659RBzjnnHydCHQid4kDo2JJtuLnxqDIsjfqF5axClIL9XyWaRKpD6QiVBZ/F0HbRb2Ibv8shc4xyvCNaPU%2bU8ln%2bJofOLKMWDKOjFw%2bpBfYo5Rof4oia/sgwmgOr8xwKh3MofPIzT1xY/Q1ajpZjMLyNGboZ9jMW2E8r2CQtsJ2ap%2b/kQlolvcf5mROP/svqZOpjXOiFfY4%2bNoleOamSk6hFE6r2359QBSsTKsmhDnSd7GbXyfOdUegSZVgvOo93c%2bK0YEJ1gJMn8jaoC9Vf18PtzDJvnF7qBa33WYwfew774Z/ZK/yDY4MnsAeTQ084UnyKPkHQM/QeIPufo2cf2fsc3XtfoCuQ7E3AwLVcDN9Tp9RxYjqtTqvlapMZA7fMcp2hnzh%2bEGUZuk4YYfFKlFNri5hSfzitFlPqD6fVckpNNutR87nAgNZDhWg7VoLWUHLEjJbDhGXzvmKUr%2bWU2jWtllPqDJS5Z8G4NFkI8EL4ch/c2RiEgaPPMBD6DP1HnlHCc4k95AVFvIDtkOAlRZCgBIpIQI9g/yt0ByYwrLIwEl/GipvJBwssrlUmdc1x4KZYfVa5WSHfQ4iV51Y/LVp8tYsWXpXlNv2ChVeDutKUOrfwWrc1DW0hJrQfL4X1aCnaBKGllFEGy0EzKjdkomJd5vyi65osVKzJQc4KjRCwE1Hufoh094cl6B5Gjr9Af%2bhTKcElwh5Cgp%2brEl6oEl6ilyJ69rEMScJIXDFG7pdg%2bK7ArIhwSVi40jQnQVl87b9dgb6YQrT6Jn%2bw5qj9FxdeU%2bUSvCUwDx2nhACzREiwnihH4xcFyjL8nASx1JaJyrXZyHFPgdvp5TsRs8ofpykiI%2bA8xk%2b%2bhP0Im8CRJ%2bQpm8RT2EJI8DP0CQ49R%2b9BEiTKl7IZ9EcYMMbJ0QgnNCNsAqIZCAnDcQtFzK85LhQhlt8dN8rQ/rXuIxJ%2bvfDa9DEJW0SZhtagQnScMKP9BCvPaLDsL0L1ZrHynK4uwRNVQuVao3w/6XZGFRC23AsPPYLhPPUSE5QwcSIB44LjrzB27BVGj5LQ1xgRHEkkSXAEJ8h8MHg5E2OcKY5SwOh9RcLI70hY1CRulTPJqavPAf9s4VX7kYVX/ZwE0Rwa/bLQtCdHvpVSVp/T1PcQ8xLEMnzVOiPyVokcsNwT0av8cG6lL86vCoBxdywKv7yCvD2XCcvdV5C7SyXgKrmGbP%2brSPO5iGYxkWIUDF03UkAJK18sBXxMwvBvSRCLr3cq0HU8E22%2bSbAuXH1eGA2/IWFRNIjVZw/ljZRk8%2bIXMgslVK/PUgWs8GQE%2bCGKAiKJiAQXooeQLBU9hTfClvngxJKdOLnEG0mekehhz2A7%2bALD3xoxLgQ8oIAHpo9IKFkQCeZfJcfBuHJ0U4DVLxHW3cmMguTflOAS8ZsSPnwr9bEXMhvEknwW8ldTQJgQsNoXUasURDREr1SIWunPBCkIQDQREq6vCWT/eRtjR1%2bj/zCTYtBTDF9Ox8SPJRijgLF4kyLhwUckuJJjnEuCGg132B2GpKI9IBHtFGDdRaQE8Vrut1/INP0f30qJSKjZmIn8NW8owN0lwEeRsNJ3Lhoi3cVnP0Ss8JVjhb9vPYqu4J8weixBJkf74WdyjDAQkYLxxyZWvliiRIKKlGCakzAkmIsEs%2bwhBm6Y8DYwmZVPQvueN4wCsuuNGglCQjJapIQUVYAGzQIpQTsnoWGHTs0JSl6okxIMqoRUKaGaEqo2ifcSGShYm8TJ0EpPxK71kxLmEFEg8cc5dx%2bZG3L2XJQ9xCi7yUGOF4aOMvmFvsDAERKagIl7BXAyCpwPTZh4WILx%2bAU8YHTcN0tG74neolS%2bixhh5UcfVKA/Ohede5LQ%2bVUy3n2h8HZPCjp2k10aRoaC1V/LZqJlrhA9BvHRcfygR4uXHpadBkmzJ9mRiqbtTIjb09DI3qGB44SGLemo9xBkoI49Q/3mLBSvYxM4vmwLhAQRCQKREwRhK3bi1LIdiF29C%2bbAa7CF/g0dwfFoPxSPjkMP0X7wEYeWj2ANeoy2vQ/xNuwlHPE5cNzLgV1wNwe2u7mwxancyUWfJA%2b9t/PQc4vlrXx0fZeDxsBnqPP/GXUBT1Drr1Dj9xQ1vk9R7SN4hipv4vVM/RvPc/k3nood6l955N94yNaXyl95tiTA7JGAks2vJPN/43mt/o0nEaYNb5C%2b%2bgn%2bF7c2NHhzo19gAAAAAElFTkSuQmCC' /%3e%3c/svg%3e"},"categories":[{"id":"programing","path":"/category/programing/"}],"tags":[{"title":"shell"},{"title":"postgres"},{"title":"coprocess"},{"title":"linux"}]}},{"node":{"title":"Postgres Memo","timeToRead":1,"date":"July 24, 2017","path":"/article/postgres-memo/","summary":"","thumbnail":{"type":"image","mimeType":"image/png","src":"/assets/static/thumbnail.3df3210.c4cd435a56990429ca777bac303c7304.png","size":{"width":1024,"height":576},"sizes":"(max-width: 1024px) 100vw, 1024px","srcset":["/assets/static/thumbnail.1b91758.c4cd435a56990429ca777bac303c7304.png 480w","/assets/static/thumbnail.3df3210.c4cd435a56990429ca777bac303c7304.png 1024w"],"dataUri":"data:image/svg+xml,%3csvg fill='none' viewBox='0 0 1024 576' xmlns='http://www.w3.org/2000/svg' xmlns:xlink='http://www.w3.org/1999/xlink'%3e%3cdefs%3e%3cfilter id='__svg-blur-4f43d6d185d4595fdabdfdca45845d3b'%3e%3cfeGaussianBlur in='SourceGraphic' stdDeviation='40'/%3e%3c/filter%3e%3c/defs%3e%3cimage x='0' y='0' filter='url(%23__svg-blur-4f43d6d185d4595fdabdfdca45845d3b)' width='1024' height='576' xlink:href='data:image/png%3bbase64%2ciVBORw0KGgoAAAANSUhEUgAAAEAAAAAkCAYAAAA5DDySAAAACXBIWXMAAAsSAAALEgHS3X78AAAUnElEQVRo3qVad1xUZ9o1KjDMADN0AZNYokZN3d1P1%2bxmv/02%2b8umqRh6R2LBhoodBQHpXRSkSAd7CaiIvfcGKIh0o6bYEXvh7HnvDDgq7prf98f5vXfeexnnnPM8z/s8N%2bnSaPkFbvb4Bld7fI3fLL/Fr8TPlt/hiuVwXLYYgUsWI3HRwhbN5qPQRDSaf496czvUmdmj1swBF8wccd7UCdWmzqgizpq6oNLEFRUmbig3ccdpYw%2bcMvbESWMvnCCOqbxxVDUaR1Q%2bOKz8AQeVY3BAORb7leOwz2gc9hiNx24jX%2bwynIAdhhOx3XASthlORpnBFJQSWwz8sFkxFZsU01CsmI4fFf7YqOePdTZzUfB9JPJtI5EnMCoKubbRyNEg2zZGQpZtLJYLjIxD6sgodLlp/iVAsk8sR%2bAxyT4iHprb4r7ZKNwz%2bx6tZna4Y2qHFlN73DJ1wE0TR1w3ccI1E2dcNXbBr8au%2bMXYDT%2br3HFZ5YFLKk9cVHmhWemNJuVoNCh9UG/0A2qNxuCC0VjUGI5DteF4VBn64pyBLyoNJqDCYCLOKCbhtGIyTimm4ITCD8flU3FMPg1H5NNxWN8fB/Vn4ID%2bTOyXzcJe2Wzskc3BLr252Kk3Dzv0ArBNNwBr/x6Jld/HYuWIWKwgQYGiEfEolJCAAiKfyBuRiPzhScgcHocu1wY54ukgdzwc4IoHA9xw/30P3Bvsjbsf%2bKB1sA9aBv%2bA24PH4Nagsbg5aByuDxqPa4N8cXWgL34bOAG/DJyIn9%2bfhCvvT8bl96fgp/f9cHGAH5oHTEXTgGlo6D8d9f39Udd/BmqJC/1noqbfLFT3m42qfnNw7r25OEtUvDcP5X0DcKbvfJzuuwAn%2bwTiRJ8gHCeO9VmII72Dcbh3CA71DsXBPotwoE8Y9vcOx95e4djTKwJ7bCKw5fM4rPZajDWui7HaLRmrNFjptkTCCrelKCIKXbm6piLbZTEF6GeHZ59NwKMv/YkZePDZJNzt74HW3q64088TLe954VZfb9wkbvQdjet9fXC1zw/4rc8Y/NpnLH7uPQ5XiMu9x%2bNSL19c7DUBzb0moqnXJDS%2bOxn1705B3bt%2bqH1nKmqI8%2b9MQ/U701H1tj/Ovj0DlW/PREXPWSgnTvecjVM95%2bAkw/m4zTwcswnAUev5OGK9AIesA3HQOggHrIKw1ywQe0wDsdt8IXZbhWJnj0XYabEIWynGascErHJOwiqnJKwkVjgtllDklIxCCUtQ4CiwFFkOiUyB4TPwzCMMj7zCiUg8dA/H/ZEL0NrfC7eNbXGLuX6T4X%2bd4X/N1BFXGf6/Mvx/MXHBFeb6ZYb/JWN3XGSuNzP8mxj%2bDczzeoZ/HcP/AvO8huFfTVQxBc4xBSqZAhVMgXLm%2bWmG/ymDSThpMBnHGf7HGP5HmOOHGf6HGP4H5P7Yz/Dfx/DfI5uJ3fLZONQ/Eoc/ScAe61CU6czFVqZAqd58bNFZgDV/jUSRnQj9OIZ9HMM%2bXoI69NXhnyvAFEgXKdDiFYqnnhTAPUwi/0DAKwr3PKLQMtBHIn/D0hnXLZxxzcIFv5m74ldzN/xi7o4rZh64bOaJn4iLpsx7U280mjLvTZn3Jsx7E%2ba9CfPemHlvzLw3Zt6rJqBSNREVqkkoV07GaeKU0g8nVVNxXDkNx5TTcdSIeW/oj0OGzHtD5r3hLOwzYN6T/Im/JOOsayEqXApxxrEAe/tEoZT5X2oQRAECsaFfGIrs41E0knlvy7zXIN82kcWRGJmEXAmLkU5hutx2D8YTEQEe4RoBInDfLRz3PKPROiqYJ4Qzbpiz6FGAq%2bZqAX4xY9EzY9GjAJeEABryTSTfaDKa5H1QJwQwHkPyY3FeCKAaT/K%2bOKsRoFw5CWckAaao3defjKMCdP%2bIkSDPwmdAAQwogMEs7NGfhf09glBhn4tyuzycHpWLM06FOPr3dJTKFmCLPAib9YJQrAzGim/p/igKQBEKRpL8SI0AIxMl8jlCgBEaAW5JApC8lgD33CNx143wiMatwSx8Jg4a91n1NQJc0Qjwk6mW%2byTfYKLlvrGW%2bxoBKilAhVItgHD/pKj%2bPVgHBgej/INQHLeey9CfpnZfQ15ynwLsswhEhR2J22sEcC7C4b%2blYYseBdAPwib9hSjRWYjVQ6NQYJ8gVf8CLfLt7qsFSEb6KC0BHrS73y6AayRaveNwa%2bhUXFPZ46qF6wvuX9Fy/6Lkvvfvc181Wcr9ysELUWufhlqX5bjgkoUah0yc/jQSB5n7Ivz3UYC9QgADHnv6s3HkT4kop/PC/ZOj8rCzZwQ26y7AZjnJCwG6L8S6d8LZEyR06r4kAPM/124JUv8UKQQIwWOPiA4BBPl7bloCDJmKqyoH/Gbh%2bor7l7Tcb3qt%2b%2bNedZ/kRfErf3cO6pwzUOeUiQv2GaghzjssR41LDo73C8U%2bmT/2GZK8YjZ2KyiAfC526M/j0ReB/YPisMM8FFt05z93Xz8YxXrB2KgIRdGXLICjEiUBtN0XxS/bbjHyhi5GWrdQngJaAtzXCv9W1yi0esTiBs/9q2x%2bhACdu%2b/V4X7D73FfPhFVwyJR70bn7dNxgc4L96vtM3HeOQfl/7sY%2b%2bQz1e4L8go2PQo2PfIAlOmy8nefJ1X%2bUpH7GgGKZcH4UT8EG7uFYNUn0ci3pwAjtNwn%2bRySz/0sEYU6cVgmCeAWwhNAFD7hPKu/WzTdJ3nPOLSMDGXuu7H4udF9dwrgQQE86b4X3feWQr%2bZha%2bJVb%2bBxOvpfB2rfi2J1zDvz7PqV5H4ORI/y6pfQeKi8p9h1T/Ftrb6b3Goc82iAIwA4bx9Fs7bEU65qPhnCsN/DvaS/B4S30XsVARQgPnYrghEmSIIW0l%2bC4lvpvObSLxYFkoBFmFj90VY2yOS1T%2bJESBAx4eTuF0y8j5PQqFuLAq7x2OZThgFEEcgI%2bC%2bZwgrfyjuei5Cq1cY7riE4EY/d7pvS/L2JG9P8g4k70jyTiTvTPIuDH1XkncjeXcS92Doe5K8F533JvnRJO6DSvYCFez5z7DnP82e/5RyPKv%2bWFR8Eohaj3QSTiWWodopDVWO6ahiVJxgIdul54ddBv7YyXqwXT4D2xgRW1kMS1kLNuvPwSbZXJTI5uFHWQA2yuZjPYvhOr1ArNUNwmrdhcj7RxSyHWLV/b99HLL%2bFoM8vXDkdA1Hrk4UlnRbiC5Xv52JR24xuDsiF3e/y0fr8Hzc%2bSYPt9hsXDcNwDXLIBbAIBbAhRQimOd/MH42D8EV5t9ls0VMhUXsA8Jw0SycgkQwGiLYC0SyF4iiKFGMiGj2AjGoMYllRMSyJsSxH4jHOWU8qiyT0fjPDWj8uhgNXxWj/l8lqP9qE%2bq%2bLMEZ6wwcN1jC3iAFx4xS2Ruk8nhcxtMhDQeJA4bp7A8yGCWZTJNMFsnl2G2QxUjJxk6DbM4H2dg6oBAl/1qFki%2bIz1dhi6qAJ0YBNskLKeAKrJBlostli69xv990tNg8RIsVcMf6GVp6PEWL5RNet3Hv2RvhTk/ibV7bENZasOpkT/ue1YufxfdIz9s8Va9Wr/m7l7/jdWh/rocGmr%2b5aw381OMGBTD/GnfNx3LzAe5QAOlHkLgEq7bn153B6vkzLUpCnzDn556EjQa8bjEhery0r7n38p70PSaa1ayTv7F5ac/6zX9jO4QIQoBLPW6iyyWLb3C3hy83KYC1JgKs38z1DnUtnrF4PsODoDa0/g8/GxEmhLH6%2bu5XFLUfr5Wa/fZ7AioNzNSf77m04e7XYn2G1s%2b4p3jpeRPN95hprq3f4Pd1wqkjAn4y/watlr7qCLB%2bKQLeECK0Hm9pw9PyNjze3IaHEW2476deHwS04ck2XscQURrEE9FEMu/PIxaq77fIn0l///RkG579xL0E9bMPZnGNbcOjTK5L2jincE3h6tUmCfFGkaD9ezsEuCkE%2bPb/J4CVOree7G%2bTIuBRKkVYRdI7SKSK61HureC6nWsa1wPEEfWzguSTXcQhPlvH7%2brLZ5a3oe0J713R7Ndw3UscU3/n442818jnsnhdrEmb3/mbXxCgiRHQ8pIAbwytsLo/pU1KhTt9n%2bFhEiPAh3vTSTSQTnnyB%2beSTKVakPvj%2bEP6M2XCeD2BmKh2WBRREfoPZnNvJv/OideL1PfvefOeB%2bGudl5Exj0n/pumWkX2d/z2jhRYpxqGKxZjuPGIXwLJ0Td3//naotIUPEvCSP25xQTq1ZD3elOMqcC9b6C%2bb6kpdMYatO%2bZavbb72k/Y6JVIDX7b1SsXxMBUhGcpeiPU6bueEgBbgsiVk9/XxRoIkE6vsRqI45DUWnFUfqY6fFEfaRZPsVt2WPcNnwiOaau5s9egOSijdZn4WxPDdr3xXfbtH9%2bTqg9Am6Lf8fiibS%2bHKWdRsB4%2bXtYp/oCdy0D2fYKvNz4hKgbH7P2xieso/FRNz0RbHrY07PxqTONZjcYjRqjKNRaJ6Hh42w0fb4Szf9ch8Yv1qKe1%2bcHZaHCNBlnDBI4EyTjNHFKuQQnlUtx3Ggpm54UTdOTisMdjU%2b6uvExyMDR91bi1JASCUc/2IDdRjlskbPZKeYQudhttQp7e6/DTqvVbJML2PCoG58S/SIUs/n5kdgoW8nucQ3y2Sx1mSIfgBiDP5DsKPb8dlztXtv2NnbS9p5vb3uN2fYajUYl54GaIQtQb5eIBtelHHZSUOeSwnE3FRdc01DjvAznvk3C8f4LsF9/MvYp/NjJTeO0N41d3HT2%2bq9pe/XnctKbh2LFApS%2bHYHSXtHYqAzBGk3bu5qzwKZBydg6LBNbP1uOLcOysGFgKnL1IpHdLQJZ3aOQ2S0aGd1ikNZVIB5xXTkLTJMPxBzFByg3tcUtcw867iYNPVdeGHpGdzr0XNAeeowISz80fJ2IZvdMNDqlo4F9fb1DOuocMlDrkPl86HHK5sibizND4rFfMUs99BjMfWXo2SZfgDJ5IIV4PvSUiImvezA2COguwnpZONZ2D8Pmvkux8/N8bB%2bai7Khedg6NB9lfy3C%2bt7pyO0ax94/ATndEylEEpZ3E1iCJArSZToFECJsUP0Dt83FtOf6xiPvhY6RlzO/6QT29PFodktHo0MqyS8j0lBHEQRqHTM6Rt7z9ss59mah2jUPJ/4YK73sFC88dmuNvNvE2EsRtuqLtz2B6pFXpjXycvJbL1vE4ScMaylC2acZ2D4sB9uG5pB8LkopQumf81H8cQ7JxzMK4kk%2bgcQTGQVJjIZkJHSNVkfADPlgxBkOeeMXHnVaLzzOMwLOGYxF3Z9DcNE9A00k38jJroGTXb1GAIk8IZFnBFQ7ZEkCnBNwzMWhd0OwSzaLk988SYDtkgAkzwgoJfmOFx4kXywT5EOwQY8C6HHs1Q3DGlkEtn6aSQGE%2b7kUIA9bBF4RIJHEE5FOATIYAZIAUynAbMWHEs6a2rEOiDe97hr3Pf%2b7%2bxxvq62moNl%2bKZpJvNGRApC4EKBT9zUCVNln4yxn/3NOeTj19xTsYp63u7%2b9M/fbX3jINO7radzneLuKKVDSZym2MwUk94eQPFH6l0Ks7ZWO7LfiXnBfCJDedQni1QIMwlzFR5jCtUT1Ja6bi5B3JzzovCervBeJe9P50ailABeMf6DzYzjWjkW1Cd1XUIyP5uMiQ19y3/E/uy8JILlPASTkoOL7HOw1D8IOzvfbFWr3y7Tc39zhfvCL7lOANUIAnQiskkWxCKazAFKEzwpQOqwAGwcuZxFMeMF9IUBat8UUYCmLYAy6%2bJH4HArgxzRIMhyGG%2bbeuGY2Gr8Rv5r54BfTH3DFdAwum47FJZNxuEjSzSa%2bTImJFMMX5wwZ/n8N78j95%2bH/n9xvFyAHlXaEYx4OvBeB7bpzKMD8DvdLtdwveY37q3VJXjcSK3QiUaQThdVmSVhrk4KVPGpzu8e9kPuZkvuLeQIIaAkwmwLMkH%2bIOfKPUaL8CmWq71Cq/A5blMOxWTkCm5QjUWI0Ej8a2aLYaBQ2ECsNbXFIySNQ6Yu6f0Sj2TVdCn9R%2bDpzv0MADXlJAJKvEAI45%2bPgoBhs05mDbYrO3H8e/u3ur9O4LwRYKQTQjaIA0SjoGoW8t6JZ%2bWNY9Zn7JJ/VLaHDfSHAsq7JRApiu8ZqC6DGFP0PMFn/QwmT9D/CRAkfY4LsY0yUfYIxXMdyXW7wLSpY/c/x%2bKv7v2g0uaarK//vdF8tQAEODIyR/jPXNp7z/8n9DVrur5HcVwsg3C8UAujEIF8nloUvThLgVfeTkdouwFuxohEahFkdAnwswV/%2biYTp8k8xTV/gD8Qf4UviAfJh2KVkQ2Q8iXVgAioV41A7LAxNbhlocFj2X92vane/Q4BclDvkS6%2b6y3TnoUyh7X7Qi%2b7LXnV/lZb7hRryed0FeYa/RoCX3U9lAUylADEsjmoBSN5fg%2bl0W2Ca/ieYSggBphDj6Xyi4gu2rzwKSfysajzOcq1QjEfVgHlolCJAkE8jebUANQ4Zr3E/u8P9CgeeAiOysUMViDJZgHT0vVr51cVvPcN/nab4rdYNf%2b6%2b7nP384T7HeTj6X4CyauPPpH7wv0UCpDSNRXRQgBR/GbT9Zka92douT9dIs9rur%2be%2bd/I4lfHwife9VerJqBKNRHnlJNw1sQPjcOXoMklUwr/epKvc8xUd3%2bi8yP58w7ZjIBsipBDEXIpQi4qv%2bfqUoSjQ5awAAaoX3fLg5gCCxkFwRSB7S1dL2HD8yOxkcTX0/l1ehE8/yMpQhRFiMZKEi8icfGuv4Bnfh5dz2XVz2bXl0XXl7PpEee%2bOPpE8RPup76VxghIQJdx%2bu9LeT9Jg4nM/QkSPsI42YeYof8nlBrZ0W0fHFN54ajSmxiNw0ofFkH1/%2bKyX%2b6DIwNn46xzCiodltLVFIZ1Ks4Qp%2b2XEWk4RZywS5dw3C4DxwTYER4akYZi07kk5Y917P3XEKtls3mszcFKHotF7P8L9QJQQOTrzUeu7gLk6AYimzNAls5CZOoEI4NI1wlBWvdQpHZfhBT2BUu7hSOZM8DibpFseSORyOIozn1R%2bUXux74Vj%2bC3wvBvL3rErCFueEEAAAAASUVORK5CYII=' /%3e%3c/svg%3e"},"categories":[{"id":"programing","path":"/category/programing/"}],"tags":[{"title":"postgres"}]}},{"node":{"title":"PHP - Fatal error: Class not found","timeToRead":1,"date":"May 18, 2017","path":"/article/php-autoload-case-sensitive/","summary":"","thumbnail":{"type":"image","mimeType":"image/png","src":"/assets/static/thumbnail.3df3210.a0574f68ebd438dc6e2616dd523d85f6.png","size":{"width":1024,"height":576},"sizes":"(max-width: 1024px) 100vw, 1024px","srcset":["/assets/static/thumbnail.1b91758.a0574f68ebd438dc6e2616dd523d85f6.png 480w","/assets/static/thumbnail.3df3210.a0574f68ebd438dc6e2616dd523d85f6.png 1024w"],"dataUri":"data:image/svg+xml,%3csvg fill='none' viewBox='0 0 1024 576' xmlns='http://www.w3.org/2000/svg' xmlns:xlink='http://www.w3.org/1999/xlink'%3e%3cdefs%3e%3cfilter id='__svg-blur-a6957ba812426e1141e9d550fd9a3fed'%3e%3cfeGaussianBlur in='SourceGraphic' stdDeviation='40'/%3e%3c/filter%3e%3c/defs%3e%3cimage x='0' y='0' filter='url(%23__svg-blur-a6957ba812426e1141e9d550fd9a3fed)' width='1024' height='576' xlink:href='data:image/png%3bbase64%2ciVBORw0KGgoAAAANSUhEUgAAAEAAAAAkCAYAAAA5DDySAAAACXBIWXMAAAsSAAALEgHS3X78AAATpElEQVRo3oWa%2bVeUV57Ga0XtxIwao4KIyr7vyr6DgEAVmwjKvu/7vonsCIqigiioySRmMa5JJz3ppDsn60l6kpxMJsvMJDM9SU/39OnpM/MfPPPc%2b1ZBCdj54XPuW/Uu9X6f%2b93uBdWo3htnrfxxxsoPk2Tcyhdjel%2bMkNN6HwyRQdLP63pJD%2bnSe6GDtJNWvSeaSSNp0HugTueBGlKtc0clKSelOjeUkCJSQPJ1rjhBckmOzgXHSBbJ0DojnRhIqtYJR0kySdQ6IoHEk1itA6JJFInQ2iOcY5BqP%2bJ2%2bqLaUIDKtHxUkHITZaSUlJDitJMoIoUm8tNOQHVW44N5bQAuav1xgcxq/XBW44tpMqX2wQQZIyNqbwyTITKo9kI/6SXdak90knbSpvZAC2lSuaOB1JEalRuqSAUpV7milBSTQpUL8skJkqtyRg45pnJCFskgRpUj0kgKSVY5IJEkkHiVPWJJNIlUHUQ4CVUdQDApCE%2bnCIWoOHoS5SknUWailJSQ4pQTKCKFpICcTMmD6rJ1DJb3xGFxVwwWnonGwu5YzO%2bNx2XbBFzkOLc3DufJOTKzNxbTZIpM2MRgnIySYXLaJhqnyADpt4lCL%2bkmXTaR6CBtpNUmAs3WEWgiDaTOOhy1pJpUWoehgpSREutQFJNCkm8dghMkjxzfE4wc62Ac43GWTQgyeGzcEwSDdRCSdwagMNiAtvxaNB2vRGOuQgOpJ3WkltSQ6twKUomK4%2bVQze2MwAtumXgxKB%2b3yA33DFyiEOe3heH8zkicezoCM2T66XBMkQky9nQYRsgwGSKDO0IxQPpIz44QdJFO0r4jGK2kmTTtCEIDqdtxGLWkmlRuP4zy7YdQRkpI0fZAFJB8cmJ7AHLJcXJsuz%2bySCYxbvPD0Se9kPSEJ5K2eiN5ux8St/si/ike2xxGfWYp6rPLUEdqSY2J6uxSVJFKUmGiNKsYqltRxfilsQWvZbbiIblvbMZLseWY2xWNcZUXxrW%2bGGWYDGvo/mSQ9Gvo/qSbdGk80SHd31Nxf9JA6tXuqCXVajdUknJSqqb7kyJSoHbBSbp/Hjku3d%2bZ7u%2bMTLp/OjGQVLr/UZJEEk3uH692RK5dBArdjiB1hz9CGP%2bhDINgcojHeUGpqDYWoezoWvc/Kd1/XQjcy2zB6%2bkteEjDHxibKADJasXdjGbMWcdijMaPMUmO6P2YFP1wislxkPSTXibHbtJJ2pkc23TeaNF5oYk0kDqdJxOiJxOiJxOiBxOiBxOiB4qZGAtJATnJpJhHcvXuyNG7IZuJMVPrymTowmTowmTowmTozGTojAQaXxOYjqHsegxm1aI3vQrpe0MowgGE6ZykAMn7Q1CTUYyKVJEEC5gEFVYTYT4TYT6TYL6SBO8aG/G60SxAs/SAO4ZG3KUwtxIqMbEpAKM6X5MAvlKAAX7u0/mgh3TT6E7STlppdDNplAJ4rghQRaMrSJmWAmjdUUwKSb7WjQK44zi9IYuznMFZFglQCGCk4WmyGjhLAY7wXPrfUfi0SvSmVaDraBn6MqpRHZqNULU9QjWiGjAhbnFBaWIeKlkRyilCWeoa41NNlYDnTqaaBUhfFeAeuUsveJXf36EIF2zjZfYfYYkcWhHAZ0WALhresYEA9TS8dgMBSmh40YoA7rICFG31Q93BWNTaxyF/W4CsAIoALkjRrApg2MpyTOP7DJXoSilDf2YNKoMz6QEHEUIBglkSA%2bgF2f5JqKYXlKUIASzKYKpp9ilCgcCYvyqAnP10CwGEFxxrw4KbAadVnhTAXwow%2bBgB2h4jQPXjBODMixLYeDAOU6lVmM6swxkybqhGnWsi0tROigDC/SlCEsd4ilDmmYyBjBr0k06KkPJMoCyBIVpFAH/RE1gHolLkgVSTAKQkddUDCkReyChCgn88VHfWCdCEO5YCuCoCDJs8QMY/De/dQABz/K8VQMa/1kIAEfs0vmpnMGbSazFNJtKqMC6gAJNZdSi2DWcCdKAALlKARDZECRpHxDEPZLL05TlEI5GZXyTAMDH7IgQ09ghUMxnqHVEYdwwV7AlKzQKYQkAkwFIafzQwCftUe9cIYLQQgN%2b/mtksewARAisC6FYF6H6MAA2PEUDEvyKAB2ffGd0%2bRpzLasAkPWCShk%2bQ0VTmncxatAVlyyYoxZQAEzVCACfEEdEAhXGmw1kVwilKqBTAHofJIXqBr8oOBo9YVDEMSlNWBRAVoIzGpwUdhb16P%2bzMArxmXBVgxf1ZCV6IK1cqgM6iAqwRwJwAf7YCSAE8ZAKUHsDE13coG2cz6zGZVi0FELM/JrwgvQZd4blKBdCsFyCW3hBNItkah9P4UJMHSAE0QoD9iHjaR1YBsweIMiiMzwhNg5PmAA5SpP3qfcwBTHSv0QPuWwhwj8bfpgizu6IwwjI4ovdfEWBACuBrIYCPKQEKAbwtBPAyJcCNBPBg/XdCq2sSZrMbpQdMmAQQHjDJMtfoa5AtsAiBJBECxCxADInizEdoHC08QAjggECK4M%2bq4McxLzIDFcwFwvhyekN2hBGuOns40HgHimCntoXq%2bchivJ7BKpDRhAfkXkYjbsWU4Pwz7PjY3IxZCQG8KYA3TtHAARrWR3poWBfpJO00qJU0k0bObj2pJdWs71WkguWujKWthBTRoAIufE7QoIItzC1xBUx%2bNZgwVmJckFGFU8nFOCY6O7p6Mmc5kYYlkDgaFUOiNAdpvIh9lj0aEkwOk0DNfvgTP%2b0BeKhskOAUivLMQpQYTyI70gA3q4OceRvYa/bhAI23VVtDdYaGLe5Kxuy%2bKczazmBm9wQN7sGwthOjm3sZ%2bz04bdWtsKkHQ5u66QndTIaCLgzy8wDP9fO436oLfaSXx72msYdjz6YuNkydXEUqdJpo07Sj96lBjO47gxHbKYzwHUbsptG7fQhNmja06Du40uxAk0DXwRUnsergqrODIrejXq9Qx%2bM6fl9r1U6vI/yuStuKul90o2vvGLptx1H3RDfKNS2o0LexIWtlVWrnRNQpAsxqIrjCm2ebe41cxZDVMk5pl9CnWsSg6hpnfkl%2bHlBdlZzmeYl%2bmZ%2bVa0Z%2bcUN%2bPq1bxqg45j2nec%2bQ%2bpq8ZpjnRrfcWGXzdTmOiOdor/IZV/h787z2CsVfwhifMbbZxBZlHNYsKYjz8tx1jGj5XKvrGOJ7DauXMM5rxzeb4W/olxTEe5ExXjvG35ywuokB/SVFgAtWUTToIrnCWV6gsZcxuXMJV4Nu4%2bz%2bZzG%2b7Somn1nGvM%2bLuOT1IoZ0FEt1idfP40rgK7jg8jy6VOfkvaNbF9HJ4zHeM779Gmb23cRy5F0Mb7nCa2bRozov6VVdkGO/6iLFv4wz1tdxPeYezh14Dqc3K9eKa8zX9armMLXnunyPyV3L8ntx7/iOa5yweSwG38a5g8%2bh2/Rsca5H3ntBfifea4I2DdK2U7xe2NqlPwvVFAU4r6cAVGPIijO1ZZE3zeH2ibfwxy/%2bgn998z/x4cwX%2bGzpG3z38D/w40d/wpzrLYxtvcal8U384dM/41etH%2bBh9bv4dP4rvDP4Ce6X/Ubecz36Pt6f/BxfPPsd7ha9jbe6P8avez7GG03v45Xct/BG4/u4U/g2JnYs473Jz%2bTnj%2be%2bxK/aP8Tr9e/xnndwp%2bBtvNn8AcV/Wd7z%2b/f%2bC%2b8O/w73Sn8jn/PJ5a9w3vF55T3aPsSDyt/K65Yj78n3%2bIeOj/BC2i/x2fI3eMHwhhRymAIP09Zu/bmNBeimag8qfitf6m7xO/jd4tf4/Po3%2bPbBv%2bPFzDc5s0vyxS95vsTvv8Ut4xv467/9H/7wyX9LY//89V/xpy//B1eD7%2bCj2S/x8QUF8byP5/5J3vPD2z/hi5vfYiniLr3kWXxAwR5WvSsNEqL/5bv/pbF/xPe//lE%2b762uj/FswkN%2b/kmK8M3dHySf3/gWi0Gv4tOFr%2bQ7/8vrv8cP7/yEf779vbz/H699La///q0f5XuuE2BC74VZfSQFuMhGZ0G6tXBJ4fpjT12VTO%2b9gVn752jwLelaIkQGOIpzwu1GnlzEDbrvgv/LuBF3H8tRd3Et9FUZAnOuL%2bC5pIeY93sJU7uvY4ruK56zyPASLn2OzxXuKX7vxcw3OJt/L89dC3tVhteVQ69QyNuY5ffi/mnbm7jAZwqXv%2bhxCwsBL2PG7qbklH4e12PvyWfeiL8vf3OGz53jdTePPMDk7mXmuDUhUMO6OKkPl4oMiWTChCES3CCTlzgeEglQJEdTAhzerCTA4U3LyjleJxJeP5OXSHZiNB%2bLpHhKdU0mNnG/SIqCUyqR9Ph7fO4Qzw/rlGTZr1qQyWxQJtZFed0pOfJZ4jomwCH5WTx/QSZOcc6cHEdF8haf1UtyVBIj308%2b5woT5pJFEryhJMFEzW42NYGYtOpl%2besnfczYfczO/RSlj8aa2NTHEthHlftY/gS9Cjw3wHsHNvehn%2bf7Nyv0spR2qjrQpRWlsIfu1o0Odaeki5%2b7eE0nxw7SzmvbxTHLbBvHtk0KrSZaSDPvF2PfM2Po2TmKnqdH0LtrDK1PDrAkdqKBpbiOZbeW5bJaI8qhKItdkhoBS3EVS28Vr63UibGLDVkjVFGaXWxYnHBBH4BpdnpnyCQZJ6N6H4ph3hkWTZA3myBvNkFebIK8uAbwYgvsyQ7Qk3XaQ%2b4M17HTq%2bJCp2GrP3oc4nHaPx0jwTk4zd6%2b1zsVDbYRKLByRw77/Fw2RTkkm61u5sqOsJOyI8wOL1kjmiBHUxPkIJugPKcYVIVkopIU%2bCYjguv/Q2o2QcSfRGz3QsyeAIRs94SH2g6uqn1w4ejEtteBHFQrTZDoAm3UNlDF0gOytHY03l8yRSbIOFvfUTKst1wF%2blosg30eWQQ1U6B6jQdnwhsjXkZcTKnGfFaj5FJmAy6SOba9sxn1GI8vQZ1dtNwJzmF3mK1d3QWy3AdItmiB40ULzJVgDMVJ23UIRptgRG12k5sgh9n6BukckeESi/wgI06SE%2bSocww8GeKuXBu4UBwnLoAcyEG1WAfYYa9oheM1e7jWtpEt7jl6waRJgDEaPmIpwJo1wCP7ADS%2bkca3PhGA2egiXM1uxmVjHS4aajCXVoMLHGc5niNnBel1chXY4WPAMbXLIwIY1glgsQgyrQHCxAaI2AOg4WIfIJDHqXZhKKZX5AWmITcwFccDUnEiJAOxdiFwFl7AVtmRxtuvFSCBAggRqnXOrAbMBTR4gpgFENtgQ49ZBZoFaNZ6oplrhvPS%2bCZcppGXDLW4aKzFHEchwHkhAo/Pcpzm6u8MOZvdgBbPlJVtsNV9QGdlFbhGgBgaLwSQq0CtaREkZp8iHPdKRP5hg0mANBynCDmH0mDwOgI3jTL7igB2DAGzAHsVD0jQWHMW7Bj/SgiMrxFgdRW4wTJYzL7KHRPe6VjizM%2bn1WKes3/JuF6AcyYBZsgZrvymKMJUei1KdofIbbB0nesjAohV4JEVARxXBIig4WGmZXDQYwTIsRDAdQMB7IiNWQARAolaa8a5l8wD5vj/2Y1QGt8itsW3HsKV1BosptdjwVC3oQBi9s0CTEsBajDJtb/YBusOzUG62nmdByTR8COm%2bI/dQIAQ0zJYhECKXSiKGALC/QU5DIE8hkAMQ8CJIeCsWY3/dQIkU4BYjrUMgxnmgdGVvw2a3d/HYva9VzdCWR2aVG4YdkzCUlYTrtDABeN6Ac5bCDBjKYBB2QgZS61E7lO%2b8m8BBtM%2b4EYCRG8gQBA5pGYiZBJMd4lZSYC5QQYkO0fDg0nQmUlQSYB2K/G/IkCcSQAx5mj3SwHOmJLhOBnVW/xNQOdn8gSRDH3RIQVwx5mAbOn%2bCyYBLlsIcMFCALP7T5tCQG6D0QsmGAalLI%2bpYudX92gCXCtApEbZBVoVQOwC2SOAIviR8G3eLIOBCN7mBXdmfqUC/IwAIgREHkjkKLyggbFYyxepIVWkkt%2bVkzJSSopZik4yCdXp3NGqZfUIycM1eoBw/0cEMPy8AGIjdIphUOUQhxSV/ToBEh4jQOhaAYgQwIsGu9Pl3VV2igDE2RT/lgLsWyvAEQogRIhhXxBNokgkiSDhJIwNUxjHYI6CY1p7pf4zB5wNNgugJECzAHN/Q4ApCwEmKUClfawUIE23cQmM2UCA1X1AIQA9gPgSb%2bJJFAH2rwhgWQGEANZmARLNAmgV4kkciSUx2j2IJlG8LpSGx/NasdXVwxAQOaCROWDSJ2MlBBQBHl8C1wlgYAgYa1BkHUoBHGQP8DdL4CMCKDvBgWYB6AE%2bwgtouAdxe4wAdhsJkGDyAJEUxXciKcYIaLzwBGF8OnNEm9wP9JGjUgLdMLAvFlczG1cEWF8BRAmseaQCTJm2wYXxp5PKkL3FU/4xZKMKEPfYCrAqgL%2bY/Q0EMMf/owLsgy2xVlmUwSMbzL5AhIIQoZTrhQFTJ9hp8eewFuaAlk2%2buJRQhsUMtr6GjXJArckDai08oEYmwDNZ9WjxNch/hjCyGdqoDX68BzhYeIC9hQcctBDggIUH7F/vAWIxFCdn%2b9HYj5Sxv0uKUM247JY9v2nRQ%2bp1yr/D1Oo9UMGevvNADC5l1NHgahpbzRlnp0dmyDRRkp7Y/q6Sbj%2baVolRYxUGk0qQ%2baQXkhn/8t9hLBY/sSSahkVqxB9A7OUucAgJIsouMBdAxJeG%2bRAv4kHcxCKIOBNHi0XQfra%2b%2b%2bRusFgI2WK3yhr/DxFdf5H7rBReAAAAAElFTkSuQmCC' /%3e%3c/svg%3e"},"categories":[{"id":"programing","path":"/category/programing/"}],"tags":[{"title":"php"}]}}]}}},"context":{}}